<?xml version="1.0" encoding="UTF-8"?>
<svg width="186px" height="315px" viewBox="0 0 186 315" version="1.1" xmlns="http://www.w3.org/2000/svg" xmlns:xlink="http://www.w3.org/1999/xlink">
    <title>Fill 1</title>
    <defs>
        <linearGradient x1="50%" y1="0%" x2="50%" y2="100%" id="linearGradient-1">
            <stop stop-color="#01D374" offset="0%"></stop>
            <stop stop-color="#01B874" offset="100%"></stop>
        </linearGradient>
    </defs>
    <g id="PUBLIC-PAGES" stroke="none" stroke-width="1" fill="none" fill-rule="evenodd">
        <g id="HOME--1-VALIDATE" transform="translate(-282.000000, -4473.000000)" fill="url(#linearGradient-1)">
            <path d="M282,4473 L282,4720.72679 C282,4738.55683 293.44485,4754.22165 310.478438,4759.70719 C354.471005,4773.86826 368.902602,4783.98075 368.984118,4784.03614 L374.347872,4788 L379.799663,4784.15996 C379.920307,4784.07687 393.142206,4775.25634 439.81502,4759.88641 C456.674164,4754.33244 468,4738.69531 468,4720.97443 L468,4473 L282,4473 Z" id="Fill-1"></path>
        </g>
    </g>
</svg>